More data manipulation with dplyr and tidy
…
Can you summarize the racial composition of the different regions by year (i.e., a region had a certain percentage white and black members for a given year) and create a plot of the changing racial composition in each region over time?

methodists_region <- methodists %>% 
  left_join(regions, by = "state")

racial_composition <- methodists_region %>%
  group_by(year, region) %>%
  summarise(sum_white = sum(members_white), sum_black = sum(members_black))
racial_composition

## # A tibble: 75 x 4
## # Groups:   year [49]
##     year region sum_white sum_black
##    <int> <chr>      <int>     <int>
##  1  1786 <NA>       18291      2890
##  2  1787 <NA>       21949      3883
##  3  1788 <NA>       30557      7991
##  4  1789 <NA>       34425      8840
##  5  1790 <NA>       45983     11682
##  6  1791 <NA>       50580     13098
##  7  1792 <NA>       52079     13871
##  8  1793 <NA>       51486     14420
##  9  1794 <NA>       52794     13906
## 10  1795 <NA>       48121     12171
## # ... with 65 more rows
…
In the europop package there are two data frames, europop with the historical populations of European cities, and city_coords which has the latitudes and longitudes of those cities. Load that package and join the two tables together. Can you get the populations of cities north of 48 of latitude?

library(europop)
joined_europop <- europop %>%
  left_join(city_coords, by = "city")
joined_europop

## # A tibble: 2,653 x 6
##    city       region             year population    lon   lat
##    <chr>      <chr>             <int>      <int>  <dbl> <dbl>
##  1 BERGEN     Scandinavia        1500          0   5.33  60.4
##  2 COPENHAGEN Scandinavia        1500         NA  12.6   55.7
##  3 GOTEBORG   Scandinavia        1500          0  12.0   57.7
##  4 KARLSKRONA Scandinavia        1500          0  15.6   56.2
##  5 OSLO       Scandinavia        1500          0  10.7   59.9
##  6 STOCKHOLM  Scandinavia        1500          0  18.1   59.3
##  7 BATH       England and Wales  1500          0  -2.36  51.4
##  8 BIRMINGHAM England and Wales  1500          0  -1.90  52.5
##  9 BLACKBURN  England and Wales  1500          0  -2.48  53.8
## 10 BOLTON     England and Wales  1500          0  -2.43  53.6
## # ... with 2,643 more rows

joined_europop %>%
  filter(lat > 48) %>%
  arrange(desc(lat)) %>%
  group_by(city) %>%
  summarise(sum_pop = sum(population, na.rm=TRUE))

## # A tibble: 202 x 2
##    city             sum_pop
##    <chr>              <int>
##  1 'S HERTOGENBOSCH     112
##  2 AACHEN                66
##  3 AALST                 48
##  4 ABBEVILLE             48
##  5 ABERDEEN              56
##  6 ALENCON               37
##  7 ALKMAAR               67
##  8 ALTONA                55
##  9 AMIENS               126
## 10 AMSTERDAM            911
## # ... with 192 more rows
…
The first thing we can notice about this data frame is that it is very wide because it has a column for each of the years. The data is also suitable for reading because it like a table in a publication. We can read from left to right and see when certain districts begin and end and get the values for each year. The difficulties of computing on or plotting the data will also become quickly apparent. How would you make a plot of the change over time in the number of members in each district? Or how would you filter by year, or summarize by year? For that matter, what do the numbers in the table represent, since they are not given an explicit variable name?

The problem with the table is that it is not tidy data, because the variables are not in columns and observations in rows. One of the variables is the year, but its values are in the column headers. And another of the variables is total membership, but its values are spread across rows and columns and it is not explicitly named.

The gather() function from the tidyr package lets us turn wide data into long data. We need to tell the function two kinds of information. First we need to tell it the name of the column to create from the column headers and the name of the implicit variable in the rows. In the example below, we create to new columns minutes_year and total_membership. Then we also have to tell the function if there are any columns which should remain unchanged. In this case, the conference and district variables should remain the same, so we remove them from the gathering using the same syntax as the select() function.

va_wide %>% 
  gather(year, members_total, -conference, -district)

## # A tibble: 190 x 4
##    conference district    year  members_total
##    <chr>      <chr>       <chr>         <dbl>
##  1 Virginia   James River 1812           5348
##  2 Virginia   Meherren    1812           4882
##  3 Virginia   Meherrin    1812             NA
##  4 Virginia   Neuse       1812             NA
##  5 Virginia   Newbern     1812           3511
##  6 Virginia   Norfolk     1812           4686
##  7 Virginia   Raleigh     1812           3822
##  8 Virginia   Roanoke     1812             NA
##  9 Virginia   Tar River   1812             NA
## 10 Virginia   Yadkin      1812           3174
## # ... with 180 more rows

We can see the results above. There are two ways that this result is not quite what we want. Because the years were column headers they are treated as character vectors rather than integers. We can manually convert them in a later step, but we can also let gather() do the right thing with the convert = argument. Then we have a lot of NA values which were explicit in the wide table but which can be removed from the long table with na.rm =.

va_long <- va_wide %>% 
  gather(year, members_total, -conference, -district, 
         convert = TRUE, na.rm = TRUE)

va_long

## # A tibble: 100 x 4
##    conference district     year members_total
##    <chr>      <chr>       <int>         <dbl>
##  1 Virginia   James River  1812          5348
##  2 Virginia   Meherren     1812          4882
##  3 Virginia   Newbern      1812          3511
##  4 Virginia   Norfolk      1812          4686
##  5 Virginia   Raleigh      1812          3822
##  6 Virginia   Yadkin       1812          3174
##  7 Virginia   James River  1813          4691
##  8 Virginia   Meherren     1813          4486
##  9 Virginia   Newbern      1813          3558
## 10 Virginia   Norfolk      1813          6196
## # ... with 90 more rows
…
By looking at the data we can see that we got back to where we started.

Turning long data into wide is often useful when you want to create a tabular representation of data. (And once you have a data frame that can be a table, the knitr::kable() function is quite nice.) And some algorithms, such as clustering algorithms, expect wide data rather than tidy data.

For the exercise, we will use summary statistics of the number of white and black members in the Methodists by year.

methodists_by_year_race <- methodists %>% 
  group_by(year) %>% 
  summarize(white = sum(members_white, na.rm = TRUE),
            black = sum(members_black, na.rm = TRUE),
            indian = sum(members_indian, na.rm = TRUE))
methodists_by_year_race

## # A tibble: 49 x 4
##     year white black indian
##    <int> <int> <int>  <int>
##  1  1786 18291  2890      0
##  2  1787 21949  3883      0
##  3  1788 30557  7991      0
##  4  1789 34425  8840      0
##  5  1790 45983 11682      0
##  6  1791 50580 13098      0
##  7  1792 52079 13871      0
##  8  1793 51486 14420      0
##  9  1794 52794 13906      0
## 10  1795 48121 12171      0
## # ... with 39 more rows

The data in methodists_by_year_race could be tidier still. While white, black, and indian are variables, it is perhaps better to think of them as two different variables. One variable would be race, containing the racial descriptions that the Methodists used, and another would be members, containing the number of members. Using the gather() function, create that data frame.

methodists_tidy <- methodists_by_year_race %>%
  gather(race, members, -year)
methodists_tidy

## # A tibble: 147 x 3
##     year race  members
##    <int> <chr>   <int>
##  1  1786 white   18291
##  2  1787 white   21949
##  3  1788 white   30557
##  4  1789 white   34425
##  5  1790 white   45983
##  6  1791 white   50580
##  7  1792 white   52079
##  8  1793 white   51486
##  9  1794 white   52794
## 10  1795 white   48121
## # ... with 137 more rows
…
Now use the same tidied data to create a wide data frame where the racial descriptions are column headers and the years are rows.

methodists_tidy %>%
  spread(race, members)

## # A tibble: 49 x 4
##     year black indian white
##    <int> <int>  <int> <int>
##  1  1786  2890      0 18291
##  2  1787  3883      0 21949
##  3  1788  7991      0 30557
##  4  1789  8840      0 34425
##  5  1790 11682      0 45983
##  6  1791 13098      0 50580
##  7  1792 13871      0 52079
##  8  1793 14420      0 51486
##  9  1794 13906      0 52794
## 10  1795 12171      0 48121
## # ... with 39 more rows
